{
	"success": true,
	"timeRes": "522 ms",
	"error": "",
	"total": 4,
	"colectores": [{
		"id": 1,
		"totalColectores": 101,
		"downColectores": 11,
		"fallaGestionColectores": 11,
		"fallaOpticaColectores": 10,
		"voltajeColectores": 21,
		"temperaturaColectores": 38,
		"ventiladorColectores": 31,
		"cpuColectores": 10,
		"memoriaColectores": 20,
		"disponibilidad":20
	}],
	"olts": [{
		"id": 1,
		"totalOlt": 102,
		"downOlt": 22,
		"fallaGestionOlt": 45,
		"fallaOpticaOlt": 20,
		"voltajeOlt": 22,
		"temperaturaOlt": 48,
		"ventiladorOlt": 32,
		"cpuOlt": 30,
		"memoriaOlt": 30,
		"disponibilidad":40
	}],
	"switches": [{
		"id": 1,
		"totalSwitch": 103,
		"downSwitch": 33,
		"fallaGestionSwitch": 31,
		"fallaOpticaSwitch": 30,
		"voltajeSwitch": 32,
		"temperaturaSwitch": 49,
		"ventiladorSwitch": 33,
		"cpuSwitch": 50,
		"memoriaSwitch": 40,
		"disponibilidad":60
	}],
	"router": [{
		"id": 1,
		"totalRouter": 104,
		"downRouter": 44,
		"fallaGestionRouter": 41,
		"fallaOpticaRouter": 40,
		"voltajeRouter": 54,
		"temperaturaRouter": 50,
		"ventiladorRouter": 34,
		"cpuRouter": 70,
		"memoriaRouter": 60,
		"disponibilidad":80
	}]
}